Encryptr: Easily Encrypt and Decrypt Sensitive Data with R
…
Encryptr on CRAN / Github

install.packages("encryptr") # CRAN
remotes::install_github("SurgicalInformatics/encryptr")

https://github.com/SurgicalInformatics 

library(encryptr)
library(dplyr) # Used in presentation examples

# Encryptr comes with an example data set of GPs
gp

## # A tibble: 1,212 x 12
##   organisation_co name  address1 address2 address3 city  county
##   <chr>            <chr> <chr>    <chr>    <chr>    <chr> <chr> 
## 1 S10002           MUIR LIFF RO MUIRHEAD <NA>     DUND ANGUS 
## 2 S10017           THE  CRIEFF  KING ST <NA>     CRIE PERTH
## 3 S10036           ABER TAYBRID <NA>     <NA>     ABER PERTH
## 4 S10060           ABER TAYBRID <NA>     <NA>     ABER PERTH
## 5 S10106           GROV 129 DUN BROUGHT <NA>     DUND ANGUS 
## 6 S10125           ALYT NEW ALY ALYTH    <NA>     BLAI PERTH
## #  with 1,206 more rows, and 5 more variables: postcode <chr>,
## #   opendate <date>, closedate <date>, telephone <chr>,
## #   practice_type <dbl>
…
genkeys()

## Private key written with name 'id_rsa'
## Public key written with name 'id_rsa.pub'

Default values are 
“id_rsa” and 
“id_rsa.pub”

gp_encrypt = gp %>% 
  encrypt(name)
gp_encrypt %>% 
  select(organisation_code, name, address1)

## # A tibble: 1,212 x 3
##   organisation_code name                                address1      
##   <chr>             <chr>                               <chr>         
## 1 S10002            65050c5483f8e91b9440af16311246d48a LIFF ROAD     
## 2 S10017            4c5bfc9fad5921f4821bf37711c628ff43 CRIEFF MEDICA
## 3 S10036            81692cc52a205fffb597b5758e1578b71c TAYBRIDGE ROAD
## 4 S10060            82044551abc3aa1e2f5e75acf54bd151de TAYBRIDGE ROAD
## 5 S10106            14bd2519c1cb2fc4aeca5bc8b6e7001d5e 129 DUNDEE RO
## 6 S10125            43d15dc74ad3100b9c2918fd118d52f174 NEW ALYTH ROAD
## #  with 1,206 more rows
…
